^C:\USERS\300050763\SOURCE\REPOS\ASSIGNMENT-4-SALARY\ASSIGNMENT 4 - SALARY\DEBUG\MAIN.OBJ
C:\USERS\300050763\SOURCE\REPOS\ASSIGNMENT-4-SALARY\DEBUG\ASSIGNMENT 4 - SALARY.EXE
C:\USERS\300050763\SOURCE\REPOS\ASSIGNMENT-4-SALARY\DEBUG\ASSIGNMENT 4 - SALARY.ILK
C:\USERS\300050763\SOURCE\REPOS\ASSIGNMENT-4-SALARY\DEBUG\ASSIGNMENT 4 - SALARY.PDB
